Project-1-Checkpoint2
…
vars <- c("is_monarchy", "is_commonwealth", "is_presidential",
          "is_colony", "is_communist")

result <- map_dfr(vars, function(var) {
  props(var) |>
    mutate(variable = var)
})
result

# A tibble: 355 × 3
    year  prop variable   
   <dbl> <dbl> <chr>      
 1  1950 0.309 is_monarchy
 2  1951 0.309 is_monarchy
 3  1952 0.314 is_monarchy
 4  1953 0.309 is_monarchy
 5  1954 0.314 is_monarchy
 6  1955 0.309 is_monarchy
 7  1956 0.309 is_monarchy
 8  1957 0.314 is_monarchy
 9  1958 0.309 is_monarchy
10  1959 0.309 is_monarchy
# ℹ 345 more rows
…
tenure_by_regime(tenure_data, "monarch")

# A tibble: 28 × 2
   regime_category                                          mean_tenure
   <chr>                                                          <dbl>
 1 British Dependent Territory                                     68  
 2 British Overseas Territory                                      68  
 3 British Protectorate                                             6  
 4 British protected state                                         25.5
 5 Civilian dictatorship                                           12.6
 6 Colony                                                          22.4
 7 Colony (Constituent Country) as the Netherlands Antilles        30.5
 8 Colony (with Sultan)                                            11  
 9 Colony administed from Jamaica                                  10  
10 Colony administered from Jamaica                                10  
# ℹ 18 more rows
…
